…
An interesting tag is `PROPN`or proper noun that refers to the name (or
part of the name) of a unique entity, be it an individual, a place, or
an object. To get a feel for what entities we can filter out the proper
nouns and then count and sort their lemmas using `count()` from
**tidyverse**

``` r
propns <- parsed_tokens %>%
  filter(upos == "PROPN")

propns %>% count(lemma, sort = TRUE)
```

    ## # A tibble: 512 × 2
    ##    lemma         n
    ##    <chr>     <int>
    ##  1 States      310
    ##  2 America     237
    ##  3 United      170
    ##  4 Congress    126
    ##  5 God         107
    ##  6 President    88
    ##  7 Americans    75
    ##  8 Mr.          31
    ##  9 nation       29
    ## 10 Chief        27
    ## # … with 502 more rows
…
