…
An interesting tag is `PROPN`or proper noun that refers to the name (or
part of the name) of a unique entity, be it an individual, a place, or
an object. To get a feel for what entities we can filter out the proper
nouns and then count and sort their lemmas using `count()` from
**tidyverse**

``` r
propns <- parsed_tokens %>%
  filter(upos == "PROPN")

propns %>% count(lemma, sort = TRUE)
```

    ## # A tibble: 512 × 2
    ##    lemma         n
    ##    <chr>     <int>
    ##  1 States      310
    ##  2 America     237
    ##  3 United      170
    ##  4 Congress    126
    ##  5 God         107
    ##  6 President    88
    ##  7 Americans    75
    ##  8 Mr.          31
    ##  9 nation       29
    ## 10 Chief        27
    ## # … with 502 more rows
…
``` r
adjs <- parsed_tokens %>%
  filter(upos == "ADJ")
```

2.  Display the most occurring adjectives in the inaugural speeches
    using `count()`

``` r
adjs %>% count(lemma, sort = TRUE)
```

    ## # A tibble: 1,788 × 2
    ##    lemma        n
    ##    <chr>    <int>
    ##  1 great      334
    ##  2 other      268
    ##  3 new        245
    ##  4 own        244
    ##  5 public     217
    ##  6 free       182
    ##  7 american   163
    ##  8 fellow     151
    ##  9 such       147
    ## 10 national   141
    ## # … with 1,778 more rows
…
